…
### OTS

Loading all UK trade of single malt Scotch whisky (CN8 code 22083030)
and bottled gin (22085011) for 2019 is done like so:

``` r
library(uktrade)
data <- load_ots(month = c(201901, 201912), commodity = c(22083030, 22085011), join_lookup = FALSE,
    output = "tibble")

# Results are now in a tibble (set output to 'df' to obtain a dataframe):
data
#> # A tibble: 4,663 x 10
#>    MonthId FlowTypeId SuppressionIndex CommodityId CommoditySitcId CountryId
#>      <int>      <int>            <int>       <int>           <int>     <int>
#>  1  201901          1                0    22083030           11241         1
#>  2  201902          1                0    22083030           11241         1
#>  3  201903          1                0    22083030           11241         1
#>  4  201904          1                0    22083030           11241         1
#>  5  201905          1                0    22083030           11241         1
#>  6  201906          1                0    22083030           11241         1
#>  7  201907          1                0    22083030           11241         1
#>  8  201908          1                0    22083030           11241         1
#>  9  201909          1                0    22083030           11241         1
#> 10  201910          1                0    22083030           11241         1
#> # ... with 4,653 more rows, and 4 more variables: PortId <int>, Value <dbl>,
#> #   NetMass <dbl>, SuppUnit <dbl>
```
…
As you can see, results are not easily interpretable as they stand. The
HMRC API also has lookups which can be loaded separately using
`load_custom()`, or joined automatically:

``` r
# Load specific lookups separately:
commodity_lookup <- load_custom(endpoint = "Commodity")

# Or join automatically with the `join_lookup = TRUE` option:
data <- load_ots(month = c(201901, 201912), commodity = c(22083030, 22085011), join_lookup = TRUE)

data
#> # A tibble: 4,663 x 39
#>    MonthId FlowTypeId FlowTypeDescript~ SuppressionIndex SuppressionDesc Hs2Code
#>      <int>      <int> <chr>                        <dbl> <chr>           <chr>  
#>  1  201901          1 "EU Imports     ~                0 <NA>            22     
#>  2  201902          1 "EU Imports     ~                0 <NA>            22     
#>  3  201903          1 "EU Imports     ~                0 <NA>            22     
#>  4  201904          1 "EU Imports     ~                0 <NA>            22     
#>  5  201905          1 "EU Imports     ~                0 <NA>            22     
#>  6  201906          1 "EU Imports     ~                0 <NA>            22     
#>  7  201907          1 "EU Imports     ~                0 <NA>            22     
#>  8  201908          1 "EU Imports     ~                0 <NA>            22     
#>  9  201909          1 "EU Imports     ~                0 <NA>            22     
#> 10  201910          1 "EU Imports     ~                0 <NA>            22     
#> # ... with 4,653 more rows, and 33 more variables: Hs2Description <chr>,
#> #   Hs4Code <chr>, Hs4Description <chr>, Hs6Code <chr>, Hs6Description <chr>,
#> #   Cn8Code <chr>, Cn8LongDescription <chr>, Sitc1Code <chr>, Sitc1Desc <chr>,
#> #   Sitc2Code <chr>, Sitc2Desc <chr>, Sitc3Code <chr>, Sitc3Desc <chr>,
#> #   Sitc4Code <chr>, Sitc4Desc <chr>, Area1 <chr>, Area1a <chr>, Area2 <chr>,
#> #   Area2a <chr>, Area3 <chr>, Area3a <chr>, Area5a <chr>, CountryId <int>,
#> #   CountryCodeNumeric <chr>, CountryCodeAlpha <chr>, CountryName <chr>,
#> #   PortId <int>, PortCodeNumeric <chr>, PortCodeAlpha <chr>, PortName <chr>,
#> #   Value <dbl>, NetMass <dbl>, SuppUnit <dbl>
```

Loading aggregate data (such as all spirits, HS4 code 2208) is possible
too (in the background, this is loading commodity codes larger than or
equal to 22080000, and less than or equal to 22089999):

``` r
data <- load_ots(month = c(201901, 201912), commodity = 2208, join_lookup = TRUE)

data
#> # A tibble: 23,466 x 39
#>    MonthId FlowTypeId FlowTypeDescript~ SuppressionIndex SuppressionDesc Hs2Code
#>      <int>      <int> <chr>                        <dbl> <chr>           <chr>  
#>  1  201901          1 "EU Imports     ~                0 <NA>            22     
#>  2  201902          1 "EU Imports     ~                0 <NA>            22     
#>  3  201903          1 "EU Imports     ~                0 <NA>            22     
#>  4  201904          1 "EU Imports     ~                0 <NA>            22     
#>  5  201905          1 "EU Imports     ~                0 <NA>            22     
#>  6  201906          1 "EU Imports     ~                0 <NA>            22     
#>  7  201907          1 "EU Imports     ~                0 <NA>            22     
#>  8  201908          1 "EU Imports     ~                0 <NA>            22     
#>  9  201909          1 "EU Imports     ~                0 <NA>            22     
#> 10  201910          1 "EU Imports     ~                0 <NA>            22     
#> # ... with 23,456 more rows, and 33 more variables: Hs2Description <chr>,
#> #   Hs4Code <chr>, Hs4Description <chr>, Hs6Code <chr>, Hs6Description <chr>,
#> #   Cn8Code <chr>, Cn8LongDescription <chr>, Sitc1Code <chr>, Sitc1Desc <chr>,
#> #   Sitc2Code <chr>, Sitc2Desc <chr>, Sitc3Code <chr>, Sitc3Desc <chr>,
#> #   Sitc4Code <chr>, Sitc4Desc <chr>, Area1 <chr>, Area1a <chr>, Area2 <chr>,
#> #   Area2a <chr>, Area3 <chr>, Area3a <chr>, Area5a <chr>, CountryId <int>,
#> #   CountryCodeNumeric <chr>, CountryCodeAlpha <chr>, CountryName <chr>,
#> #   PortId <int>, PortCodeNumeric <chr>, PortCodeAlpha <chr>, PortName <chr>,
#> #   Value <dbl>, NetMass <dbl>, SuppUnit <dbl>
```

Similarly, specifying `commodity = NULL` will load all commodities (this
may take considerable time). For example, we can load all exports to
Australia in January 2019:

``` r
data <- load_ots(month = 201901, country = "AU", flow = 4, commodity = NULL, join_lookup = TRUE)
#> Loading detailed trade data for all commodities. This may take a while.

data
#> # A tibble: 4,960 x 39
#>    MonthId FlowTypeId FlowTypeDescript~ SuppressionIndex SuppressionDesc Hs2Code
#>      <int>      <int> <chr>                        <dbl> <chr>           <chr>  
#>  1  201901          4 "Non-EU Exports ~                0 <NA>            25     
#>  2  201901          4 "Non-EU Exports ~                0 <NA>            28     
#>  3  201901          4 "Non-EU Exports ~                0 <NA>            29     
#>  4  201901          4 "Non-EU Exports ~                0 <NA>            29     
#>  5  201901          4 "Non-EU Exports ~                0 <NA>            36     
#>  6  201901          4 "Non-EU Exports ~                0 <NA>            39     
#>  7  201901          4 "Non-EU Exports ~                0 <NA>            39     
#>  8  201901          4 "Non-EU Exports ~                0 <NA>            39     
#>  9  201901          4 "Non-EU Exports ~                0 <NA>            39     
#> 10  201901          4 "Non-EU Exports ~                0 <NA>            39     
#> # ... with 4,950 more rows, and 33 more variables: Hs2Description <chr>,
#> #   Hs4Code <chr>, Hs4Description <chr>, Hs6Code <chr>, Hs6Description <chr>,
#> #   Cn8Code <chr>, Cn8LongDescription <chr>, Sitc1Code <chr>, Sitc1Desc <chr>,
#> #   Sitc2Code <chr>, Sitc2Desc <chr>, Sitc3Code <chr>, Sitc3Desc <chr>,
#> #   Sitc4Code <chr>, Sitc4Desc <chr>, Area1 <chr>, Area1a <chr>, Area2 <chr>,
#> #   Area2a <chr>, Area3 <chr>, Area3a <chr>, Area5a <chr>, CountryId <int>,
#> #   CountryCodeNumeric <chr>, CountryCodeAlpha <chr>, CountryName <chr>,
#> #   PortId <int>, PortCodeNumeric <chr>, PortCodeAlpha <chr>, PortName <chr>,
#> #   Value <dbl>, NetMass <dbl>, SuppUnit <dbl>
```
Loading OTS data by their SITC classification is a work in progress…

### RTS

Loading all UK regional trade of 2-digit SITC Divisions ‘00 - Live
animals other than animals of division 03’ to ‘11 - Beverages’ for 2019
is done by specifying `sitc = c(00, 11)` (leading zeros are removed).
This again specifies a range (like with months) to avoid URLs being too
long.

``` r
data <- load_rts(month = c(201901, 201912), sitc = c(0, 11), join_lookup = TRUE)

data
#> # A tibble: 64,377 x 26
#>    MonthId FlowTypeId FlowTypeDescription  Sitc1Code Sitc1Desc  CommoditySitc2Id
#>      <int>      <int> <chr>                <chr>     <chr>                 <int>
#>  1  201901          3 "Non-EU Imports    ~ 0         Food & li~                0
#>  2  201904          3 "Non-EU Imports    ~ 0         Food & li~                0
#>  3  201907          3 "Non-EU Imports    ~ 0         Food & li~                0
#>  4  201910          3 "Non-EU Imports    ~ 0         Food & li~                0
#>  5  201901          3 "Non-EU Imports    ~ 0         Food & li~                0
#>  6  201904          3 "Non-EU Imports    ~ 0         Food & li~                0
#>  7  201907          3 "Non-EU Imports    ~ 0         Food & li~                0
#>  8  201910          3 "Non-EU Imports    ~ 0         Food & li~                0
#>  9  201901          3 "Non-EU Imports    ~ 0         Food & li~                0
#> 10  201904          3 "Non-EU Imports    ~ 0         Food & li~                0
#> # ... with 64,367 more rows, and 20 more variables: Sitc2Code <chr>,
#> #   Sitc2Desc <chr>, GovRegionId <int>, GovRegionCodeNumeric <chr>,
#> #   GovRegionGroupCodeAlpha <chr>, GovRegionName <chr>,
#> #   GovRegionGroupName <chr>, Area1 <chr>, Area1a <chr>, Area2 <chr>,
#> #   Area2a <chr>, Area3 <chr>, Area3a <chr>, Area5a <chr>, CountryId <int>,
#> #   CountryCodeNumeric <chr>, CountryCodeAlpha <chr>, CountryName <chr>,
#> #   Value <dbl>, NetMass <dbl>
```
…
Note that the expanded columns, Exports and Trader, both need to be
expanded as they are contained in a nested <list> column. When unnested
using `tidyr::unnest()`, we can see the final results. The second
expanded column (Trader) itself contains 8 columns (which are TraderId,
CompanyName, five Address columns, and PostCode).

``` r
tidyr::unnest(data, Exports, names_repair = "unique")
#> New names:
#> * CommodityId -> CommodityId...1
#> * CommodityId -> CommodityId...12
#> # A tibble: 27 x 14
#>    CommodityId...1 Cn8Code Hs2Code Hs4Code Hs6Code Hs2Description Hs4Description
#>              <int> <chr>   <chr>   <chr>   <chr>   <chr>          <chr>         
#>  1         1012990 010129~ 01      0101    010129  Live animals   Live horses, ~
#>  2         1012990 010129~ 01      0101    010129  Live animals   Live horses, ~
#>  3         1012990 010129~ 01      0101    010129  Live animals   Live horses, ~
#>  4         1012990 010129~ 01      0101    010129  Live animals   Live horses, ~
#>  5         1012990 010129~ 01      0101    010129  Live animals   Live horses, ~
#>  6         1012990 010129~ 01      0101    010129  Live animals   Live horses, ~
#>  7         1012990 010129~ 01      0101    010129  Live animals   Live horses, ~
#>  8         1012990 010129~ 01      0101    010129  Live animals   Live horses, ~
#>  9         1012990 010129~ 01      0101    010129  Live animals   Live horses, ~
#> 10         1012990 010129~ 01      0101    010129  Live animals   Live horses, ~
#> # ... with 17 more rows, and 7 more variables: Hs6Description <chr>,
#> #   SitcCommodityCode <chr>, Cn8LongDescription <chr>, TraderId <int>,
#> #   CommodityId...12 <int>, MonthId <int>, Trader <df[,8]>
```
…
